{
    "1": {
        "symbol": "H",
        "name": "hydrogen",
        "url": "http://ciaaw.org/hydrogen.htm",
        "isotopes": {
            "1": "1.0078250322(6)",
            "2": "2.0141017781(8)"
        }
    },
    "2": {
        "symbol": "He",
        "name": "helium",
        "url": "http://ciaaw.org/helium.htm",
        "isotopes": {
            "3": "3.016029322(2)",
            "4": "4.0026032545(4)"
        }
    },
    "3": {
        "symbol": "Li",
        "name": "lithium",
        "url": "http://ciaaw.org/lithium.htm",
        "isotopes": {
            "6": "6.01512289(1)",
            "7": "7.01600344(3)"
        }
    },
    "4": {
        "symbol": "Be",
        "name": "beryllium",
        "url": "http://ciaaw.org/beryllium.htm",
        "isotopes": {
            "9": "9.0121831(5)"
        }
    },
    "5": {
        "symbol": "B",
        "name": "boron",
        "url": "http://ciaaw.org/boron.htm",
        "isotopes": {
            "10": "10.0129369(1)",
            "11": "11.00930517(8)"
        }
    },
    "6": {
        "symbol": "C",
        "name": "carbon",
        "url": "http://ciaaw.org/carbon.htm",
        "isotopes": {
            "12": "12(exact)",
            "13": "13.003354835(2)"
        }
    },
    "7": {
        "symbol": "N",
        "name": "nitrogen",
        "url": "http://ciaaw.org/nitrogen.htm",
        "isotopes": {
            "14": "14.003074004(2)",
            "15": "15.000108899(4)"
        }
    },
    "8": {
        "symbol": "O",
        "name": "oxygen",
        "url": "http://ciaaw.org/oxygen.htm",
        "isotopes": {
            "16": "15.994914619(1)",
            "17": "16.999131757(5)",
            "18": "17.999159613(5)"
        }
    },
    "9": {
        "symbol": "F",
        "name": "fluorine",
        "url": "http://ciaaw.org/fluorine.htm",
        "isotopes": {
            "19": "18.998403163(6)"
        }
    },
    "10": {
        "symbol": "Ne",
        "name": "neon",
        "url": "http://ciaaw.org/neon.htm",
        "isotopes": {
            "20": "19.99244018(1)",
            "21": "20.9938467(3)",
            "22": "21.9913851(1)"
        }
    },
    "11": {
        "symbol": "Na",
        "name": "sodium",
        "url": "http://ciaaw.org/sodium.htm",
        "isotopes": {
            "23": "22.98976928(2)"
        }
    },
    "12": {
        "symbol": "Mg",
        "name": "magnesium",
        "url": "http://ciaaw.org/magnesium.htm",
        "isotopes": {
            "24": "23.98504170(9)",
            "25": "24.9858370(3)",
            "26": "25.9825930(2)"
        }
    },
    "13": {
        "symbol": "Al",
        "name": "aluminium",
        "url": "http://ciaaw.org/aluminium.htm",
        "isotopes": {
            "27": "26.9815384(3)"
        }
    },
    "14": {
        "symbol": "Si",
        "name": "silicon",
        "url": "http://ciaaw.org/silicon.htm",
        "isotopes": {
            "28": "27.976926535(3)",
            "29": "28.976494665(4)",
            "30": "29.9737701(2)"
        }
    },
    "15": {
        "symbol": "P",
        "name": "phosphorus",
        "url": "http://ciaaw.org/phosphorus.htm",
        "isotopes": {
            "31": "30.973761998(5)"
        }
    },
    "16": {
        "symbol": "S",
        "name": "sulfur",
        "url": "http://ciaaw.org/sulfur.htm",
        "isotopes": {
            "32": "31.972071174(9)",
            "33": "32.97145891(1)",
            "34": "33.9678670(3)",
            "36": "35.967081(2)"
        }
    },
    "17": {
        "symbol": "Cl",
        "name": "chlorine",
        "url": "http://ciaaw.org/chlorine.htm",
        "isotopes": {
            "35": "34.9688527(3)",
            "37": "36.9659026(4)"
        }
    },
    "18": {
        "symbol": "Ar",
        "name": "argon",
        "url": "http://ciaaw.org/argon.htm",
        "isotopes": {
            "36": "35.9675451(2)",
            "38": "37.962732(2)",
            "40": "39.96238312(2)"
        }
    },
    "19": {
        "symbol": "K",
        "name": "potassium",
        "url": "http://ciaaw.org/potassium.htm",
        "isotopes": {
            "39": "38.96370649(3)",
            "40": "39.9639982(4)",
            "41": "40.96182526(3)"
        }
    },
    "20": {
        "symbol": "Ca",
        "name": "calcium",
        "url": "http://ciaaw.org/calcium.htm",
        "isotopes": {
            "40": "39.9625909(2)",
            "42": "41.958618(1)",
            "43": "42.958766(2)",
            "44": "43.955482(2)",
            "46": "45.95369(2)",
            "48": "47.9525229(6)"
        }
    },
    "21": {
        "symbol": "Sc",
        "name": "scandium",
        "url": "http://ciaaw.org/calcium.htm",
        "isotopes": {
            "40": "39.9625909(2)",
            "42": "41.958618(1)",
            "43": "42.958766(2)",
            "44": "43.955482(2)",
            "46": "45.95369(2)",
            "48": "47.9525229(6)"
        }
    },
    "22": {
        "symbol": "Ti",
        "name": "titanium",
        "url": "http://ciaaw.org/titanium.htm",
        "isotopes": {
            "46": "45.952627(1)",
            "47": "46.9517577(8)",
            "48": "47.9479409(8)",
            "49": "48.9478646(8)",
            "50": "49.9447858(8)"
        }
    },
    "23": {
        "symbol": "V",
        "name": "vanadium",
        "url": "http://ciaaw.org/vanadium.htm",
        "isotopes": {
            "50": "49.947156(3)",
            "51": "50.943957(3)"
        }
    },
    "24": {
        "symbol": "Cr",
        "name": "chromium",
        "url": "http://ciaaw.org/chromium.htm",
        "isotopes": {
            "50": "49.946041(3)",
            "52": "51.940505(3)",
            "53": "52.940647(3)",
            "54": "53.938878(3)"
        }
    },
    "25": {
        "symbol": "Mn",
        "name": "manganese",
        "url": "http://ciaaw.org/manganese.htm",
        "isotopes": {
            "55": "54.938043(2)"
        }
    },
    "26": {
        "symbol": "Fe",
        "name": "iron",
        "url": "http://ciaaw.org/iron.htm",
        "isotopes": {
            "54": "53.939608(3)",
            "56": "55.934936(2)",
            "57": "56.935392(2)",
            "58": "57.933274(3)"
        }
    },
    "27": {
        "symbol": "Co",
        "name": "cobalt",
        "url": "http://ciaaw.org/cobalt.htm",
        "isotopes": {
            "59": "58.933194(3)"
        }
    },
    "28": {
        "symbol": "Ni",
        "name": "nickel",
        "url": "http://ciaaw.org/nickel.htm",
        "isotopes": {
            "58": "57.935342(3)",
            "60": "59.930785(3)",
            "61": "60.931055(3)",
            "62": "61.928345(3)",
            "64": "63.927966(3)"
        }
    },
    "29": {
        "symbol": "Cu",
        "name": "copper",
        "url": "http://ciaaw.org/copper.htm",
        "isotopes": {
            "63": "62.929597(3)",
            "65": "64.927790(5)"
        }
    },
    "30": {
        "symbol": "Zn",
        "name": "zinc",
        "url": "http://ciaaw.org/zinc.htm",
        "isotopes": {
            "64": "63.929142(5)",
            "66": "65.926034(5)",
            "67": "66.927127(5)",
            "68": "67.924844(5)",
            "70": "69.92532(2) "
        }
    },
    "31": {
        "symbol": "Ga",
        "name": "gallium",
        "url": "http://ciaaw.org/gallium.htm",
        "isotopes": {
            "69": "68.925573(8)",
            "71": "70.924702(6)"
        }
    },
    "32": {
        "symbol": "Ge",
        "name": "germanium",
        "url": "http://ciaaw.org/germanium.htm",
        "isotopes": {
            "70": "69.924249(6)",
            "72": "71.9220758(5)",
            "73": "72.9234590(4)",
            "74": "73.92117776(8)",
            "76": "75.9214027(1)"
        }
    },
    "33": {
        "symbol": "As",
        "name": "arsenic",
        "url": "http://ciaaw.org/arsenic.htm",
        "isotopes": {
            "75": "74.921595(6)"
        }
    },
    "34": {
        "symbol": "Se",
        "name": "selenium",
        "url": "http://ciaaw.org/selenium.htm",
        "isotopes": {
            "74": "73.9224759(1)",
            "76": "75.9192137(1)",
            "77": "76.9199141(5)",
            "78": "77.917309(1)",
            "80": "79.916522(6)",
            "82": "81.916699(3)"
        }
    },
    "35": {
        "symbol": "Br",
        "name": "bromine",
        "url": "http://ciaaw.org/bromine.htm",
        "isotopes": {
            "79": "78.918338(7)",
            "81": "80.916288(6)"
        }
    },
    "36": {
        "symbol": "Kr",
        "name": "krypton",
        "url": "http://ciaaw.org/krypton.htm",
        "isotopes": {
            "78": "77.920366(2)",
            "80": "79.916378(5)",
            "82": "81.91348115(4)",
            "83": "82.91412652(6)",
            "84": "83.91149773(3)",
            "86": "85.91061063(3)"
        }
    },
    "37": {
        "symbol": "Rb",
        "name": "rubidium",
        "url": "http://ciaaw.org/rubidium.htm",
        "isotopes": {
            "85": "84.91178974(3)",
            "87": "86.90918053(4)"
        }
    },
    "38": {
        "symbol": "Sr",
        "name": "strontium",
        "url": "http://ciaaw.org/strontium.htm",
        "isotopes": {
            "84": "83.913419(8)",
            "86": "85.90926073(4)",
            "87": "86.90887750(3)",
            "88": "87.90561226(4)"
        }
    },
    "39": {
        "symbol": "Y",
        "name": "yttrium",
        "url": "http://ciaaw.org/yttrium.htm",
        "isotopes": {
            "89": "88.90584(1)"
        }
    },
    "40": {
        "symbol": "Zr",
        "name": "zirconium",
        "url": "http://ciaaw.org/zirconium.htm",
        "isotopes": {
            "90": "89.9046988(8)",
            "91": "90.9056402(7)",
            "92": "91.9050353(7)",
            "94": "93.906313(1)",
            "96": "95.9082776(8)"
        }
    },
    "41": {
        "symbol": "Nb",
        "name": "niobium",
        "url": "http://ciaaw.org/niobium.htm",
        "isotopes": {
            "93": "92.90637(1)"
        }
    },
    "42": {
        "symbol": "Mo",
        "name": "molybdenum",
        "url": "http://ciaaw.org/molybdenum.htm",
        "isotopes": {
            "92": "91.906807(1)",
            "94": "93.905084(1)",
            "95": "94.9058374(8)",
            "96": "95.9046748(8)",
            "97": "96.906017(1)",
            "98": "97.905404(1)",
            "100": "99.907468(2)"
        }
    },
    "43": {
        "symbol": "Tc",
        "name": "technetium",
        "isotopes": {}
    },
    "44": {
        "symbol": "Ru",
        "name": "ruthenium",
        "url": "http://ciaaw.org/ruthenium.htm",
        "isotopes": {
            "96": "95.907589(1)",
            "98": "97.90529(5)",
            "99": "98.905930(3)",
            "100": "99.904211(3)",
            "101": "100.905573(3)",
            "102": "101.904340(3)",
            "104": "103.90543(2)"
        }
    },
    "45": {
        "symbol": "Rh",
        "name": "rhodium",
        "url": "http://ciaaw.org/rhodium.htm",
        "isotopes": {
            "103": "102.90549(2)"
        }
    },
    "46": {
        "symbol": "Pd",
        "name": "palladium",
        "url": "http://ciaaw.org/palladium.htm",
        "isotopes": {
            "102": "101.905632(4)",
            "104": "103.904030(9)",
            "105": "104.905079(8)",
            "106": "105.903480(8)",
            "108": "107.903892(8)",
            "110": "109.905173(5)"
        }
    },
    "47": {
        "symbol": "Ag",
        "name": "silver",
        "url": "http://ciaaw.org/silver.htm",
        "isotopes": {
            "107": "106.90509(2)",
            "109": "108.904756(9)"
        }
    },
    "48": {
        "symbol": "Cd",
        "name": "cadmium",
        "url": "http://ciaaw.org/cadmium.htm",
        "isotopes": {
            "106": "105.906460(8)",
            "108": "107.904184(8)",
            "110": "109.903008(3)",
            "111": "110.904184(3)",
            "112": "111.902764(2)",
            "113": "112.904408(2)",
            "114": "113.903365(2)",
            "116": "115.904763(1)"
        }
    },
    "49": {
        "symbol": "In",
        "name": "indium",
        "url": "http://ciaaw.org/indium.htm",
        "isotopes": {
            "113": "112.904060(2)",
            "115": "114.90387877(8)"
        }
    },
    "50": {
        "symbol": "Sn",
        "name": "tin",
        "url": "http://ciaaw.org/tin.htm",
        "isotopes": {
            "112": "111.904825(2)",
            "114": "113.9027801(2)",
            "115": "114.9033447(1)",
            "116": "115.9017428(6)",
            "117": "116.902954(3)",
            "118": "117.901607(3)",
            "119": "118.903311(5)",
            "120": "119.902202(6)",
            "122": "121.90344(2)",
            "124": "123.905277(7)"
        }
    },
    "51": {
        "symbol": "Sb",
        "name": "antimony",
        "url": "http://ciaaw.org/antimony.htm",
        "isotopes": {
            "121": "120.90381(2)",
            "123": "122.90421(1)"
        }
    },
    "52": {
        "symbol": "Te",
        "name": "tellurium",
        "url": "http://ciaaw.org/tellurium.htm",
        "isotopes": {
            "120": "119.90406(2)",
            "122": "121.90304(1)",
            "123": "122.90427(1)",
            "124": "123.90282(1)",
            "125": "124.90443(1)",
            "126": "125.90331(1)",
            "128": "127.904461(6)",
            "130": "129.90622275(8)"
        }
    },
    "53": {
        "symbol": "I",
        "name": "iodine",
        "url": "http://ciaaw.org/iodine.htm",
        "isotopes": {
            "127": "126.90447(3)"
        }
    },
    "54": {
        "symbol": "Xe",
        "name": "xenon",
        "url": "http://ciaaw.org/xenon.htm",
        "isotopes": {
            "124": "123.90589(1)",
            "126": "125.90430(3)",
            "128": "127.903531(7)",
            "129": "128.90478086(4)",
            "130": "129.90350935(6)",
            "131": "130.90508414(6)",
            "132": "131.90415509(4)",
            "134": "133.90539303(6)",
            "136": "135.90721448(5)"
        }
    },
    "55": {
        "symbol": "Cs",
        "name": "caesium",
        "url": "http://ciaaw.org/caesium.htm",
        "isotopes": {
            "133": "132.90545196(6)"
        }
    },
    "56": {
        "symbol": "Ba",
        "name": "barium",
        "url": "http://ciaaw.org/barium.htm",
        "isotopes": {
            "130": "129.90632(2)",
            "132": "131.905061(7)",
            "134": "133.904508(2)",
            "135": "134.905689(2)",
            "136": "135.904576(2)",
            "137": "136.905827(2)",
            "138": "137.905247(2)"
        }
    },
    "57": {
        "symbol": "La",
        "name": "lanthanum",
        "url": "http://ciaaw.org/lanthanum.htm",
        "isotopes": {
            "138": "137.90712(2)",
            "139": "138.90636(2)"
        }
    },
    "58": {
        "symbol": "Ce",
        "name": "cerium",
        "url": "http://ciaaw.org/cerium.htm",
        "isotopes": {
            "136": "135.907129(3)",
            "138": "137.90599(3)",
            "140": "139.90545(1)",
            "142": "141.90925(2)"
        }
    },
    "59": {
        "symbol": "Pr",
        "name": "praseodymium",
        "url": "http://ciaaw.org/praseodymium.htm",
        "isotopes": {
            "141": "140.90766(1)"
        }
    },
    "60": {
        "symbol": "Nd",
        "name": "neodymium",
        "url": "http://ciaaw.org/neodymium.htm",
        "isotopes": {
            "142": "141.90773(1)",
            "143": "142.90982(1) ",
            "144": "143.91009(1)",
            "145": "144.91258(1)",
            "146": "145.91312(1)",
            "148": "147.91690(2)",
            "150": "149.920902(9)"
        }
    },
    "61": {
        "symbol": "Pm",
        "name": "promethium",
        "isotopes": {}
    },
    "62": {
        "symbol": "Sm",
        "name": "samarium",
        "url": "http://ciaaw.org/samarium.htm",
        "isotopes": {
            "144": "143.91201(1)",
            "147": "146.91490(1)",
            "148": "147.91483(1)",
            "149": "148.917191(9)",
            "150": "149.917282(9)",
            "152": "151.919739(8)",
            "154": "153.92222(1)"
        }
    },
    "63": {
        "symbol": "Eu",
        "name": "europium",
        "url": "http://ciaaw.org/europium.htm",
        "isotopes": {
            "151": "150.919857(9)",
            "153": "152.921237(9)"
        }
    },
    "64": {
        "symbol": "Gd",
        "name": "gadolinium",
        "url": "http://ciaaw.org/gadolinium.htm",
        "isotopes": {
            "152": "151.919799(8)",
            "154": "153.920873(8)",
            "155": "154.922630(8)",
            "156": "155.922131(8)",
            "157": "156.923968(8)",
            "158": "157.924112(8)",
            "160": "159.927062(9)"
        }
    },
    "65": {
        "symbol": "Tb",
        "name": "terbium",
        "url": "http://ciaaw.org/terbium.htm",
        "isotopes": {
            "159": "158.925354(8)"
        }
    },
    "66": {
        "symbol": "Dy",
        "name": "dysprosium",
        "url": "http://ciaaw.org/dysprosium.htm",
        "isotopes": {
            "156": "155.924284(8)",
            "158": "157.92441(2)",
            "160": "159.925203(5)",
            "161": "160.926939(5)",
            "162": "161.926804(5)",
            "163": "162.928737(5)",
            "164": "163.929181(5)"
        }
    },
    "67": {
        "symbol": "Ho",
        "name": "holmium",
        "url": "http://ciaaw.org/holmium.htm",
        "isotopes": {
            "165": "164.930328(7)"
        }
    },
    "68": {
        "symbol": "Er",
        "name": "erbium",
        "url": "http://ciaaw.org/erbium.htm",
        "isotopes": {
            "162": "161.928787(6)",
            "164": "163.929207(5)",
            "166": "165.930299(8)",
            "167": "166.932054(8)",
            "168": "167.932376(8)",
            "170": "169.93547(1)"
        }
    },
    "69": {
        "symbol": "Tm",
        "name": "thulium",
        "url": "http://ciaaw.org/thulium.htm",
        "isotopes": {
            "169": "168.934218(6)"
        }
    },
    "70": {
        "symbol": "Yb",
        "name": "ytterbium",
        "url": "http://ciaaw.org/ytterbium.htm",
        "isotopes": {
            "168": "167.933889(8)",
            "170": "169.93476725(7)",
            "171": "170.93633152(9)",
            "172": "171.93638666(9)",
            "173": "172.93821622(8)",
            "174": "173.93886755(8)",
            "176": "175.9425747(1)"
        }
    },
    "71": {
        "symbol": "Lu",
        "name": "lutetium",
        "url": "http://ciaaw.org/lutetium.htm",
        "isotopes": {
            "175": "174.940777(8)",
            "176": "175.942692(8)"
        }
    },
    "72": {
        "symbol": "Hf",
        "name": "hafnium",
        "url": "http://ciaaw.org/hafnium.htm",
        "isotopes": {
            "174": "173.94005(2)",
            "176": "175.94141(1)",
            "177": "176.94323(1)",
            "178": "177.94371(1)",
            "179": "178.94583(1)",
            "180": "179.94656(1)"
        }
    },
    "73": {
        "symbol": "Ta",
        "name": "tantalum",
        "url": "http://ciaaw.org/tantalum.htm",
        "isotopes": {
            "180": "179.94747(2)",
            "181": "180.94800(1)"
        }
    },
    "74": {
        "symbol": "W",
        "name": "tungsten",
        "url": "http://ciaaw.org/tungsten.htm",
        "isotopes": {
            "180": "179.94671(1)",
            "182": "181.948206(5)",
            "183": "182.950224(5)",
            "184": "183.950933(5)",
            "186": "185.954365(8)"
        }
    },
    "75": {
        "symbol": "Re",
        "name": "rhenium",
        "url": "http://ciaaw.org/rhenium.htm",
        "isotopes": {
            "185": "184.952958(6)",
            "187": "186.955752(5)"
        }
    },
    "76": {
        "symbol": "Os",
        "name": "osmium",
        "url": "http://ciaaw.org/osmium.htm",
        "isotopes": {
            "184": "183.952493(6)",
            "186": "185.953838(5)",
            "187": "186.955750(5)",
            "188": "187.955837(5)",
            "189": "188.958146(5)",
            "190": "189.958446(5)",
            "192": "191.96148(2)"
        }
    },
    "77": {
        "symbol": "Ir",
        "name": "iridium",
        "url": "http://ciaaw.org/iridium.htm",
        "isotopes": {
            "191": "190.960591(9)",
            "193": "192.962924(9)"
        }
    },
    "78": {
        "symbol": "Pt",
        "name": "platinum",
        "url": "http://ciaaw.org/platinum.htm",
        "isotopes": {
            "190": "189.959950(5)",
            "192": "191.96104(2)",
            "194": "193.962683(3)",
            "195": "194.964794(3)",
            "196": "195.964955(3)",
            "198": "197.96790(2)"
        }
    },
    "79": {
        "symbol": "Au",
        "name": "gold",
        "url": "http://ciaaw.org/gold.htm",
        "isotopes": {
            "197": "196.966570(4)"
        }
    },
    "80": {
        "symbol": "Hg",
        "name": "mercury",
        "url": "http://ciaaw.org/mercury.htm",
        "isotopes": {
            "196": "195.96583(2)",
            "198": "197.966769(3)",
            "199": "198.968281(4)",
            "200": "199.968327(4)",
            "201": "200.970303(5)",
            "202": "201.970644(5)",
            "204": "203.973494(3) "
        }
    },
    "81": {
        "symbol": "Tl",
        "name": "thallium",
        "url": "http://ciaaw.org/thallium.htm",
        "isotopes": {
            "203": "202.972344(8)",
            "205": "204.974427(8)"
        }
    },
    "82": {
        "symbol": "Pb",
        "name": "lead",
        "url": "http://ciaaw.org/lead.htm",
        "isotopes": {
            "204": "203.973043(8)",
            "206": "205.974465(8)",
            "207": "206.975897(8)",
            "208": "207.976652(8)"
        }
    },
    "83": {
        "symbol": "Bi",
        "name": "bismuth",
        "url": "http://ciaaw.org/bismuth.htm",
        "isotopes": {
            "209": "208.98040(1)"
        }
    },
    "84": {
        "symbol": "Po",
        "name": "polonium",
        "isotopes": {}
    },
    "85": {
        "symbol": "At",
        "name": "astatine",
        "isotopes": {}
    },
    "86": {
        "symbol": "Rn",
        "name": "radon",
        "isotopes": {}
    },
    "87": {
        "symbol": "Fr",
        "name": "francium",
        "isotopes": {}
    },
    "88": {
        "symbol": "Ra",
        "name": "radium",
        "isotopes": {}
    },
    "89": {
        "symbol": "Ac",
        "name": "actinium",
        "isotopes": {}
    },
    "90": {
        "symbol": "Th",
        "name": "thorium",
        "url": "http://ciaaw.org/thorium.htm",
        "isotopes": {
            "230": "230.033132(8) ",
            "232": "232.03805(1) "
        }
    },
    "91": {
        "symbol": "Pa",
        "name": "protactinium",
        "url": "http://ciaaw.org/protactinium.htm",
        "isotopes": {
            "231": "231.03588(1)"
        }
    },
    "92": {
        "symbol": "U",
        "name": "uranium",
        "url": "http://ciaaw.org/uranium.htm",
        "isotopes": {
            "234": "234.040950(8)",
            "235": "235.043928(8)",
            "238": "238.05079(1)"
        }
    },
    "93": {
        "symbol": "Np",
        "name": "neptunium",
        "isotopes": {}
    },
    "94": {
        "symbol": "Pu",
        "name": "plutonium",
        "isotopes": {}
    },
    "95": {
        "symbol": "Am",
        "name": "americium",
        "isotopes": {}
    },
    "96": {
        "symbol": "Cm",
        "name": "curium",
        "isotopes": {}
    },
    "97": {
        "symbol": "Bk",
        "name": "berkelium",
        "isotopes": {}
    },
    "98": {
        "symbol": "Cf",
        "name": "californium",
        "isotopes": {}
    },
    "99": {
        "symbol": "Es",
        "name": "einsteinium",
        "isotopes": {}
    },
    "100": {
        "symbol": "Fm",
        "name": "fermium",
        "isotopes": {}
    },
    "101": {
        "symbol": "Md",
        "name": "mendelevium",
        "isotopes": {}
    },
    "102": {
        "symbol": "No",
        "name": "nobelium",
        "isotopes": {}
    },
    "103": {
        "symbol": "Lr",
        "name": "lawrencium",
        "isotopes": {}
    },
    "104": {
        "symbol": "Rf",
        "name": "rutherfordium",
        "isotopes": {}
    },
    "105": {
        "symbol": "Db",
        "name": "dubnium",
        "isotopes": {}
    },
    "106": {
        "symbol": "Sg",
        "name": "seaborgium",
        "isotopes": {}
    },
    "107": {
        "symbol": "Bh",
        "name": "bohrium",
        "isotopes": {}
    },
    "108": {
        "symbol": "Hs",
        "name": "hassium",
        "isotopes": {}
    },
    "109": {
        "symbol": "Mt",
        "name": "meitnerium",
        "isotopes": {}
    },
    "110": {
        "symbol": "Ds",
        "name": "darmstadtium",
        "isotopes": {}
    },
    "111": {
        "symbol": "Rg",
        "name": "roentgenium ",
        "isotopes": {}
    },
    "112": {
        "symbol": "Cn",
        "name": "copernicium",
        "isotopes": {}
    },
    "113": {
        "symbol": "Nh",
        "name": "nihonium",
        "isotopes": {}
    },
    "114": {
        "symbol": "Fl",
        "name": "flerovium",
        "isotopes": {}
    },
    "115": {
        "symbol": "Mc",
        "name": "moscovium",
        "isotopes": {}
    },
    "116": {
        "symbol": "Lv",
        "name": "livermorium",
        "isotopes": {}
    },
    "117": {
        "symbol": "Ts",
        "name": "tennessine",
        "isotopes": {}
    },
    "118": {
        "symbol": "Og",
        "name": "oganesson",
        "isotopes": {}
    }
}